%YAML 1.1
%TAG !u! tag:unity3d.com,2011:
--- !u!114 &11400000
MonoBehaviour:
  m_ObjectHideFlags: 0
  m_CorrespondingSourceObject: {fileID: 0}
  m_PrefabInstance: {fileID: 0}
  m_PrefabAsset: {fileID: 0}
  m_GameObject: {fileID: 0}
  m_Enabled: 1
  m_EditorHideFlags: 0
  m_Script: {fileID: 11500000, guid: 249a4119a4969be4982d57033c5e6dda, type: 3}
  m_Name: Bird 24
  m_EditorClassIdentifier: 
  lines:
  - Since to the Self, the Self cannot be shown
  - A mote's self by a mote remains unknown
