%YAML 1.1
%TAG !u! tag:unity3d.com,2011:
--- !u!114 &11400000
MonoBehaviour:
  m_ObjectHideFlags: 0
  m_CorrespondingSourceObject: {fileID: 0}
  m_PrefabInstance: {fileID: 0}
  m_PrefabAsset: {fileID: 0}
  m_GameObject: {fileID: 0}
  m_Enabled: 1
  m_EditorHideFlags: 0
  m_Script: {fileID: 11500000, guid: 249a4119a4969be4982d57033c5e6dda, type: 3}
  m_Name: Bird 13
  m_EditorClassIdentifier: 
  lines:
  - Flesh hides the soul, and there, within it, you
  - The soul's soul, hide, quit hidden from our view
