%YAML 1.1
%TAG !u! tag:unity3d.com,2011:
--- !u!21 &2100000
Material:
  serializedVersion: 6
  m_ObjectHideFlags: 0
  m_CorrespondingSourceObject: {fileID: 0}
  m_PrefabInstance: {fileID: 0}
  m_PrefabAsset: {fileID: 0}
  m_Name: Bird_12
  m_Shader: {fileID: 4800000, guid: f7e38193b7f064d7380403618fd8b69e, type: 3}
  m_ShaderKeywords: DR_SPECULAR_ON _CELPRIMARYMODE_NONE _EMISSION _MODULATEREFRACTIONBYDEPTH_ON
    _NORMALMAP _REFLECTIONENABLED_ON _SSSENABLED_ON _SUNSPECULARENABLED_ON _TEXTUREBLENDINGMODE_MULTIPLY
    _UNITYSHADOWMODE_NONE _WAVENORMALENABLED_ON
  m_LightmapFlags: 0
  m_EnableInstancingVariants: 0
  m_DoubleSidedGI: 0
  m_CustomRenderQueue: -1
  stringTagMap: {}
  disabledShaderPasses: []
  m_SavedProperties:
    serializedVersion: 3
    m_TexEnvs:
    - _BumpMap:
        m_Texture: {fileID: 0}
        m_Scale: {x: 1, y: 1}
        m_Offset: {x: 0, y: 0}
    - _CelCurveTexture:
        m_Texture: {fileID: 0}
        m_Scale: {x: 1, y: 1}
        m_Offset: {x: 0, y: 0}
    - _CelStepTexture:
        m_Texture: {fileID: 0}
        m_Scale: {x: 1, y: 1}
        m_Offset: {x: 0, y: 0}
    - _DetailAlbedoMap:
        m_Texture: {fileID: 0}
        m_Scale: {x: 1, y: 1}
        m_Offset: {x: 0, y: 0}
    - _DetailMask:
        m_Texture: {fileID: 0}
        m_Scale: {x: 1, y: 1}
        m_Offset: {x: 0, y: 0}
    - _DetailNormalMap:
        m_Texture: {fileID: 0}
        m_Scale: {x: 1, y: 1}
        m_Offset: {x: 0, y: 0}
    - _EmissionMap:
        m_Texture: {fileID: 0}
        m_Scale: {x: 1, y: 1}
        m_Offset: {x: 0, y: 0}
    - _Foam:
        m_Texture: {fileID: 0}
        m_Scale: {x: 1, y: 1}
        m_Offset: {x: 0, y: 0}
    - _Illum:
        m_Texture: {fileID: 0}
        m_Scale: {x: 1, y: 1}
        m_Offset: {x: 0, y: 0}
    - _MainTex:
        m_Texture: {fileID: 2800000, guid: 8db44fd71ea5d9c47aaa7dd4558aaf1c, type: 3}
        m_Scale: {x: 1, y: 1}
        m_Offset: {x: 0, y: 0}
    - _MetallicGlossMap:
        m_Texture: {fileID: 0}
        m_Scale: {x: 1, y: 1}
        m_Offset: {x: 0, y: 0}
    - _OcclusionMap:
        m_Texture: {fileID: 0}
        m_Scale: {x: 1, y: 1}
        m_Offset: {x: 0, y: 0}
    - _ParallaxMap:
        m_Texture: {fileID: 0}
        m_Scale: {x: 1, y: 1}
        m_Offset: {x: 0, y: 0}
    - _ReflectionCubemap:
        m_Texture: {fileID: 0}
        m_Scale: {x: 1, y: 1}
        m_Offset: {x: 0, y: 0}
    - _SparkleNormalMap:
        m_Texture: {fileID: 2800000, guid: b87c6510a4b3945a197eabf8b0d60278, type: 3}
        m_Scale: {x: 1, y: 1}
        m_Offset: {x: 0, y: 0}
    - _SpecGlossMap:
        m_Texture: {fileID: 0}
        m_Scale: {x: 1, y: 1}
        m_Offset: {x: 0, y: 0}
    - _WaveNormal:
        m_Texture: {fileID: 0}
        m_Scale: {x: 1, y: 1}
        m_Offset: {x: 0, y: 0}
    m_Floats:
    - _Alpha: 1
    - _AlphaClip: 0
    - _Amplitude1: 1
    - _Amplitude2: 1
    - _Blend: 0
    - _BumpScale: 1
    - _CelExtraEnabled: 0
    - _CelNumSteps: 3
    - _CelPrimaryMode: 0
    - _Cull: 2
    - _Cutoff: 0.5
    - _DepthFade: 20
    - _DetailNormalMapScale: 1
    - _DistanceFade: 40
    - _DstBlend: 0
    - _EdgeFoamDepth: 1
    - _EdgeFoamEnabled: 0
    - _EdgeFoamNoiseScale: 1
    - _Emission: -1.02
    - _FlatRimEdgeSmoothness: 0.5
    - _FlatRimLightAlign: 0
    - _FlatRimSize: 0.287
    - _FlatSpecularEdgeSmoothness: 0.742
    - _FlatSpecularSize: 0.297
    - _Flatness: 1
    - _FlatnessExtra: 1
    - _FoamEnabled: 0
    - _FoamHeightMultiplier: 1
    - _FoamHeightOffset: 0
    - _FoamNoiseScale: 1
    - _FoamScale: 1
    - _FoamSpeed: 1
    - _GlossMapScale: 0.631
    - _Glossiness: 0.643
    - _GlossyReflections: 1
    - _GradientAngle: 0
    - _GradientCenterX: 0
    - _GradientCenterY: 0
    - _GradientEnabled: 0
    - _GradientSize: 10
    - _LightContribution: 0
    - _LightmapDirectionPitch: 0
    - _LightmapDirectionYaw: 0
    - _Metallic: 0
    - _Mode: 0
    - _ModulateRefractionbyDepth: 1
    - _OcclusionStrength: 1
    - _OutlineDepthOffset: 0
    - _OutlineWidth: 2
    - _OverrideLightmapDir: 0
    - _Parallax: 0.02
    - _QueueOffset: 0
    - _ReflectionEnabled: 1
    - _RefractionContribution: 1
    - _RimEnabled: 0
    - _SSSEnabled: 1
    - _SelfShadingSize: 0.5
    - _SelfShadingSizeExtra: 0.6
    - _ShadowEdgeSize: 0.05
    - _ShadowEdgeSizeExtra: 0.05
    - _SmoothnessTextureChannel: 0
    - _SparkleEnabled: 0
    - _SparkleExponent: 500
    - _SparkleScale: 50
    - _SparkleSpeed: 0.75
    - _SpecularEnabled: 1
    - _SpecularHighlights: 1
    - _Speed1: 1
    - _Speed2: 1
    - _SrcBlend: 1
    - _SunSpecularEnabled: 1
    - _SunSpecularExponent: 2000
    - _Surface: 0
    - _TextureBlendingMode: 0
    - _TextureImpact: 1
    - _TimeValue: 0
    - _UVSec: 0
    - _UnityShadowMode: 0
    - _UnityShadowPower: 0.2
    - _UnityShadowSharpness: 1
    - _VertexColorsEnabled: 0
    - _WaveDirection1: 0
    - _WaveDirection2: 0
    - _WaveNormalEnabled: 1
    - _WaveNormalScale: 50
    - _WaveNormalSpeed: 0.25
    - _WaveSourceX: 3000
    - _WaveSourceZ: 3000
    - _Wavelength1: 1
    - _Wavelength2: 1
    - _ZWrite: 1
    - __dirty: 1
    m_Colors:
    - _Color: {r: 0.9403022, g: 0.9622642, b: 0.19517623, a: 1}
    - _ColorDim: {r: 1, g: 1, b: 1, a: 1}
    - _ColorDimCurve: {r: 1, g: 1, b: 1, a: 1}
    - _ColorDimExtra: {r: 1, g: 1, b: 1, a: 1}
    - _ColorDimSteps: {r: 1, g: 1, b: 1, a: 1}
    - _ColorGradient: {r: 1, g: 1, b: 1, a: 1}
    - _Deep: {r: 0, g: 0.049999982, b: 0.19499996, a: 1}
    - _EdgeFoamColor: {r: 1, g: 1, b: 1, a: 1}
    - _EmissionColor: {r: 0, g: 0, b: 0, a: 0}
    - _Far: {r: 0, g: 0.25299996, b: 0.785, a: 1}
    - _FlatRimColor: {r: 0.9607843, g: 0.66420764, b: 0.5568628, a: 1}
    - _FlatSpecularColor: {r: 0.9808595, g: 1, b: 0.6084906, a: 1}
    - _LightmapDirection: {r: 0, g: 1, b: 0, a: 0}
    - _OutlineColor: {r: 0.24528301, g: 0.18703274, b: 0.107600555, a: 1}
    - _SSSColor: {r: 1, g: 1, b: 1, a: 0}
    - _Shallow: {r: 0.09448972, g: 0.9691254, b: 0.2277445, a: 1}
    - _SparkleColor: {r: 1, g: 1, b: 1, a: 1}
    - _SpecColor: {r: 0.19999996, g: 0.19999996, b: 0.19999996, a: 1}
    - _SunSpecularColor: {r: 1, g: 1, b: 1, a: 1}
    - _UnityShadowColor: {r: 0.85023, g: 0.85034, b: 0.8504499, a: 0.85056}
  m_BuildTextureStacks: []
