%YAML 1.1
%TAG !u! tag:unity3d.com,2011:
--- !u!21 &2100000
Material:
  serializedVersion: 6
  m_ObjectHideFlags: 0
  m_CorrespondingSourceObject: {fileID: 0}
  m_PrefabInstance: {fileID: 0}
  m_PrefabAsset: {fileID: 0}
  m_Name: FlatKitTest
  m_Shader: {fileID: 4800000, guid: f7e38193b7f064d7380403618fd8b69e, type: 3}
  m_ShaderKeywords: DR_CEL_EXTRA_ON DR_RIM_ON _CELPRIMARYMODE_SINGLE _TEXTUREBLENDINGMODE_MULTIPLY
    _UNITYSHADOWMODE_NONE
  m_LightmapFlags: 4
  m_EnableInstancingVariants: 0
  m_DoubleSidedGI: 0
  m_CustomRenderQueue: -1
  stringTagMap: {}
  disabledShaderPasses: []
  m_SavedProperties:
    serializedVersion: 3
    m_TexEnvs:
    - _BumpMap:
        m_Texture: {fileID: 0}
        m_Scale: {x: 1, y: 1}
        m_Offset: {x: 0, y: 0}
    - _CelCurveTexture:
        m_Texture: {fileID: 0}
        m_Scale: {x: 1, y: 1}
        m_Offset: {x: 0, y: 0}
    - _CelStepTexture:
        m_Texture: {fileID: 0}
        m_Scale: {x: 1, y: 1}
        m_Offset: {x: 0, y: 0}
    - _DetailAlbedoMap:
        m_Texture: {fileID: 0}
        m_Scale: {x: 1, y: 1}
        m_Offset: {x: 0, y: 0}
    - _DetailMask:
        m_Texture: {fileID: 0}
        m_Scale: {x: 1, y: 1}
        m_Offset: {x: 0, y: 0}
    - _DetailNormalMap:
        m_Texture: {fileID: 0}
        m_Scale: {x: 1, y: 1}
        m_Offset: {x: 0, y: 0}
    - _EmissionMap:
        m_Texture: {fileID: 0}
        m_Scale: {x: 1, y: 1}
        m_Offset: {x: 0, y: 0}
    - _MainTex:
        m_Texture: {fileID: 0}
        m_Scale: {x: 1, y: 1}
        m_Offset: {x: 0, y: 0}
    - _MetallicGlossMap:
        m_Texture: {fileID: 0}
        m_Scale: {x: 1, y: 1}
        m_Offset: {x: 0, y: 0}
    - _OcclusionMap:
        m_Texture: {fileID: 0}
        m_Scale: {x: 1, y: 1}
        m_Offset: {x: 0, y: 0}
    - _ParallaxMap:
        m_Texture: {fileID: 0}
        m_Scale: {x: 1, y: 1}
        m_Offset: {x: 0, y: 0}
    m_Floats:
    - _AlphaClip: 0
    - _Blend: 0
    - _BumpScale: 1
    - _CelExtraEnabled: 1
    - _CelNumSteps: 3
    - _CelPrimaryMode: 1
    - _Cull: 2
    - _Cutoff: 0.5
    - _DetailNormalMapScale: 1
    - _DstBlend: 0
    - _FlatRimEdgeSmoothness: 0.5
    - _FlatRimLightAlign: 0.832
    - _FlatRimSize: 0.302
    - _FlatSpecularEdgeSmoothness: 0
    - _FlatSpecularSize: 0.1
    - _Flatness: 1
    - _FlatnessExtra: 1
    - _GlossMapScale: 1
    - _Glossiness: 0.5
    - _GlossyReflections: 1
    - _GradientAngle: 0
    - _GradientCenterX: 0
    - _GradientCenterY: 0
    - _GradientEnabled: 0
    - _GradientSize: 10
    - _LightContribution: 0
    - _LightmapDirectionPitch: 0
    - _LightmapDirectionYaw: 0
    - _Metallic: 0
    - _Mode: 0
    - _OcclusionStrength: 1
    - _OutlineDepthOffset: 0
    - _OutlineWidth: 1
    - _OverrideLightmapDir: 0
    - _Parallax: 0.02
    - _QueueOffset: 0
    - _RimEnabled: 1
    - _SelfShadingSize: 0.5
    - _SelfShadingSizeExtra: 0.223
    - _ShadowEdgeSize: 0.05
    - _ShadowEdgeSizeExtra: 0.05
    - _SmoothnessTextureChannel: 0
    - _SpecularEnabled: 0
    - _SpecularHighlights: 1
    - _SrcBlend: 1
    - _Surface: 0
    - _TextureBlendingMode: 0
    - _TextureImpact: 1
    - _UVSec: 0
    - _UnityShadowMode: 0
    - _UnityShadowPower: 0.2
    - _UnityShadowSharpness: 1
    - _VertexColorsEnabled: 0
    - _ZWrite: 1
    m_Colors:
    - _Color: {r: 0.7075472, g: 0.6237427, b: 0.33708617, a: 1}
    - _ColorDim: {r: 0.31132078, g: 0.24677916, b: 0.13363297, a: 1}
    - _ColorDimCurve: {r: 1, g: 1, b: 1, a: 1}
    - _ColorDimExtra: {r: 0.7075471, g: 0.62374264, b: 0.33708614, a: 1}
    - _ColorDimSteps: {r: 1, g: 1, b: 1, a: 1}
    - _ColorGradient: {r: 0.7075471, g: 0.62374264, b: 0.33708614, a: 1}
    - _EmissionColor: {r: 0, g: 0, b: 0, a: 1}
    - _FlatRimColor: {r: 0.6886792, g: 0.58902705, b: 0.20465466, a: 1}
    - _FlatSpecularColor: {r: 0.7075471, g: 0.62374264, b: 0.33708614, a: 1}
    - _LightmapDirection: {r: 0, g: 1, b: 0, a: 0}
    - _OutlineColor: {r: 0, g: 0, b: 0, a: 1}
    - _UnityShadowColor: {r: 0.7075471, g: 0.62374264, b: 0.33708614, a: 1}
  m_BuildTextureStacks: []
