%YAML 1.1
%TAG !u! tag:unity3d.com,2011:
--- !u!1 &2027204805692981307
GameObject:
  m_ObjectHideFlags: 0
  m_CorrespondingSourceObject: {fileID: 0}
  m_PrefabInstance: {fileID: 0}
  m_PrefabAsset: {fileID: 0}
  serializedVersion: 6
  m_Component:
  - component: {fileID: 1247576971832988388}
  - component: {fileID: 5809282113751658301}
  m_Layer: 0
  m_Name: Collider
  m_TagString: Untagged
  m_Icon: {fileID: 0}
  m_NavMeshLayer: 0
  m_StaticEditorFlags: 0
  m_IsActive: 1
--- !u!4 &1247576971832988388
Transform:
  m_ObjectHideFlags: 0
  m_CorrespondingSourceObject: {fileID: 0}
  m_PrefabInstance: {fileID: 0}
  m_PrefabAsset: {fileID: 0}
  m_GameObject: {fileID: 2027204805692981307}
  m_LocalRotation: {x: -0.00000006657903, y: 0, z: -0, w: 1}
  m_LocalPosition: {x: 0, y: 0, z: 0}
  m_LocalScale: {x: 1, y: 1, z: 1}
  m_Children: []
  m_Father: {fileID: 4703753371555316437}
  m_RootOrder: 0
  m_LocalEulerAnglesHint: {x: 0, y: 0, z: 0}
--- !u!65 &5809282113751658301
BoxCollider:
  m_ObjectHideFlags: 0
  m_CorrespondingSourceObject: {fileID: 0}
  m_PrefabInstance: {fileID: 0}
  m_PrefabAsset: {fileID: 0}
  m_GameObject: {fileID: 2027204805692981307}
  m_Material: {fileID: 0}
  m_IsTrigger: 0
  m_Enabled: 1
  serializedVersion: 2
  m_Size: {x: 0.5, y: 4, z: 0.5}
  m_Center: {x: 0, y: 1, z: 0}
--- !u!1001 &5101927159436715326
PrefabInstance:
  m_ObjectHideFlags: 0
  serializedVersion: 2
  m_Modification:
    m_TransformParent: {fileID: 0}
    m_Modifications:
    - target: {fileID: -8679921383154817045, guid: 07af826317bf1d74b9089abbf2ba170f,
        type: 3}
      propertyPath: m_RootOrder
      value: 0
      objectReference: {fileID: 0}
    - target: {fileID: -8679921383154817045, guid: 07af826317bf1d74b9089abbf2ba170f,
        type: 3}
      propertyPath: m_LocalPosition.x
      value: 0
      objectReference: {fileID: 0}
    - target: {fileID: -8679921383154817045, guid: 07af826317bf1d74b9089abbf2ba170f,
        type: 3}
      propertyPath: m_LocalPosition.y
      value: 0
      objectReference: {fileID: 0}
    - target: {fileID: -8679921383154817045, guid: 07af826317bf1d74b9089abbf2ba170f,
        type: 3}
      propertyPath: m_LocalPosition.z
      value: 0
      objectReference: {fileID: 0}
    - target: {fileID: -8679921383154817045, guid: 07af826317bf1d74b9089abbf2ba170f,
        type: 3}
      propertyPath: m_LocalRotation.w
      value: 1
      objectReference: {fileID: 0}
    - target: {fileID: -8679921383154817045, guid: 07af826317bf1d74b9089abbf2ba170f,
        type: 3}
      propertyPath: m_LocalRotation.x
      value: 0.00000006657903
      objectReference: {fileID: 0}
    - target: {fileID: -8679921383154817045, guid: 07af826317bf1d74b9089abbf2ba170f,
        type: 3}
      propertyPath: m_LocalRotation.y
      value: -0
      objectReference: {fileID: 0}
    - target: {fileID: -8679921383154817045, guid: 07af826317bf1d74b9089abbf2ba170f,
        type: 3}
      propertyPath: m_LocalRotation.z
      value: -0
      objectReference: {fileID: 0}
    - target: {fileID: -8679921383154817045, guid: 07af826317bf1d74b9089abbf2ba170f,
        type: 3}
      propertyPath: m_LocalEulerAnglesHint.x
      value: 0
      objectReference: {fileID: 0}
    - target: {fileID: -8679921383154817045, guid: 07af826317bf1d74b9089abbf2ba170f,
        type: 3}
      propertyPath: m_LocalEulerAnglesHint.y
      value: 0
      objectReference: {fileID: 0}
    - target: {fileID: -8679921383154817045, guid: 07af826317bf1d74b9089abbf2ba170f,
        type: 3}
      propertyPath: m_LocalEulerAnglesHint.z
      value: 0
      objectReference: {fileID: 0}
    - target: {fileID: -3887185075125053422, guid: 07af826317bf1d74b9089abbf2ba170f,
        type: 3}
      propertyPath: m_Enabled
      value: 1
      objectReference: {fileID: 0}
    - target: {fileID: -3887185075125053422, guid: 07af826317bf1d74b9089abbf2ba170f,
        type: 3}
      propertyPath: m_DirtyAABB
      value: 0
      objectReference: {fileID: 0}
    - target: {fileID: -3887185075125053422, guid: 07af826317bf1d74b9089abbf2ba170f,
        type: 3}
      propertyPath: m_ReceiveShadows
      value: 0
      objectReference: {fileID: 0}
    - target: {fileID: -3887185075125053422, guid: 07af826317bf1d74b9089abbf2ba170f,
        type: 3}
      propertyPath: m_AABB.m_Center.x
      value: 0.0066571236
      objectReference: {fileID: 0}
    - target: {fileID: -3887185075125053422, guid: 07af826317bf1d74b9089abbf2ba170f,
        type: 3}
      propertyPath: m_AABB.m_Center.y
      value: 4.157923
      objectReference: {fileID: 0}
    - target: {fileID: -3887185075125053422, guid: 07af826317bf1d74b9089abbf2ba170f,
        type: 3}
      propertyPath: m_AABB.m_Center.z
      value: 0.012532949
      objectReference: {fileID: 0}
    - target: {fileID: -3887185075125053422, guid: 07af826317bf1d74b9089abbf2ba170f,
        type: 3}
      propertyPath: m_AABB.m_Extent.x
      value: 2.2303174
      objectReference: {fileID: 0}
    - target: {fileID: -3887185075125053422, guid: 07af826317bf1d74b9089abbf2ba170f,
        type: 3}
      propertyPath: m_AABB.m_Extent.y
      value: 4.6008277
      objectReference: {fileID: 0}
    - target: {fileID: -3887185075125053422, guid: 07af826317bf1d74b9089abbf2ba170f,
        type: 3}
      propertyPath: m_AABB.m_Extent.z
      value: 2.3226044
      objectReference: {fileID: 0}
    - target: {fileID: -3887185075125053422, guid: 07af826317bf1d74b9089abbf2ba170f,
        type: 3}
      propertyPath: m_Materials.Array.data[0]
      value: 
      objectReference: {fileID: 2100000, guid: fb77b647243f6d6438db13daee6d621b, type: 2}
    - target: {fileID: -3887185075125053422, guid: 07af826317bf1d74b9089abbf2ba170f,
        type: 3}
      propertyPath: m_Materials.Array.data[1]
      value: 
      objectReference: {fileID: 2100000, guid: 46dbf26d1c31631459ba1bca4ea6614c, type: 2}
    - target: {fileID: -3887185075125053422, guid: 07af826317bf1d74b9089abbf2ba170f,
        type: 3}
      propertyPath: m_BlendShapeWeights.Array.size
      value: 1
      objectReference: {fileID: 0}
    - target: {fileID: -3887185075125053422, guid: 07af826317bf1d74b9089abbf2ba170f,
        type: 3}
      propertyPath: m_BlendShapeWeights.Array.data[0]
      value: 0
      objectReference: {fileID: 0}
    - target: {fileID: 919132149155446097, guid: 07af826317bf1d74b9089abbf2ba170f,
        type: 3}
      propertyPath: m_Name
      value: Tree_1_Green
      objectReference: {fileID: 0}
    - target: {fileID: 919132149155446097, guid: 07af826317bf1d74b9089abbf2ba170f,
        type: 3}
      propertyPath: m_StaticEditorFlags
      value: 4
      objectReference: {fileID: 0}
    m_RemovedComponents: []
  m_SourcePrefab: {fileID: 100100000, guid: 07af826317bf1d74b9089abbf2ba170f, type: 3}
--- !u!4 &4703753371555316437 stripped
Transform:
  m_CorrespondingSourceObject: {fileID: -8679921383154817045, guid: 07af826317bf1d74b9089abbf2ba170f,
    type: 3}
  m_PrefabInstance: {fileID: 5101927159436715326}
  m_PrefabAsset: {fileID: 0}
