%YAML 1.1
%TAG !u! tag:unity3d.com,2011:
--- !u!1 &6798478478429578278
GameObject:
  m_ObjectHideFlags: 0
  m_CorrespondingSourceObject: {fileID: 0}
  m_PrefabInstance: {fileID: 0}
  m_PrefabAsset: {fileID: 0}
  serializedVersion: 6
  m_Component:
  - component: {fileID: 6693210769082873165}
  - component: {fileID: 7831467412446376057}
  m_Layer: 0
  m_Name: Collider
  m_TagString: Untagged
  m_Icon: {fileID: 0}
  m_NavMeshLayer: 0
  m_StaticEditorFlags: 4
  m_IsActive: 1
--- !u!4 &6693210769082873165
Transform:
  m_ObjectHideFlags: 0
  m_CorrespondingSourceObject: {fileID: 0}
  m_PrefabInstance: {fileID: 0}
  m_PrefabAsset: {fileID: 0}
  m_GameObject: {fileID: 6798478478429578278}
  m_LocalRotation: {x: 0, y: 0, z: 0, w: 1}
  m_LocalPosition: {x: 0, y: 0, z: 0}
  m_LocalScale: {x: 1, y: 1, z: 1}
  m_Children: []
  m_Father: {fileID: 9003174800698290981}
  m_RootOrder: 0
  m_LocalEulerAnglesHint: {x: 0, y: 0, z: 0}
--- !u!65 &7831467412446376057
BoxCollider:
  m_ObjectHideFlags: 0
  m_CorrespondingSourceObject: {fileID: 0}
  m_PrefabInstance: {fileID: 0}
  m_PrefabAsset: {fileID: 0}
  m_GameObject: {fileID: 6798478478429578278}
  m_Material: {fileID: 0}
  m_IsTrigger: 0
  m_Enabled: 1
  serializedVersion: 2
  m_Size: {x: 0.5, y: 4, z: 0.5}
  m_Center: {x: 0, y: 1, z: 0}
--- !u!1001 &8897717285882680526
PrefabInstance:
  m_ObjectHideFlags: 0
  serializedVersion: 2
  m_Modification:
    m_TransformParent: {fileID: 0}
    m_Modifications:
    - target: {fileID: -8679921383154817045, guid: 4a428de18f512244a92d785cb0781631,
        type: 3}
      propertyPath: m_RootOrder
      value: 0
      objectReference: {fileID: 0}
    - target: {fileID: -8679921383154817045, guid: 4a428de18f512244a92d785cb0781631,
        type: 3}
      propertyPath: m_LocalPosition.x
      value: -0
      objectReference: {fileID: 0}
    - target: {fileID: -8679921383154817045, guid: 4a428de18f512244a92d785cb0781631,
        type: 3}
      propertyPath: m_LocalPosition.y
      value: 0
      objectReference: {fileID: 0}
    - target: {fileID: -8679921383154817045, guid: 4a428de18f512244a92d785cb0781631,
        type: 3}
      propertyPath: m_LocalPosition.z
      value: 0
      objectReference: {fileID: 0}
    - target: {fileID: -8679921383154817045, guid: 4a428de18f512244a92d785cb0781631,
        type: 3}
      propertyPath: m_LocalRotation.w
      value: 1
      objectReference: {fileID: 0}
    - target: {fileID: -8679921383154817045, guid: 4a428de18f512244a92d785cb0781631,
        type: 3}
      propertyPath: m_LocalRotation.x
      value: 0.00000006657903
      objectReference: {fileID: 0}
    - target: {fileID: -8679921383154817045, guid: 4a428de18f512244a92d785cb0781631,
        type: 3}
      propertyPath: m_LocalRotation.y
      value: -0
      objectReference: {fileID: 0}
    - target: {fileID: -8679921383154817045, guid: 4a428de18f512244a92d785cb0781631,
        type: 3}
      propertyPath: m_LocalRotation.z
      value: -0
      objectReference: {fileID: 0}
    - target: {fileID: -8679921383154817045, guid: 4a428de18f512244a92d785cb0781631,
        type: 3}
      propertyPath: m_LocalEulerAnglesHint.x
      value: 0
      objectReference: {fileID: 0}
    - target: {fileID: -8679921383154817045, guid: 4a428de18f512244a92d785cb0781631,
        type: 3}
      propertyPath: m_LocalEulerAnglesHint.y
      value: 0
      objectReference: {fileID: 0}
    - target: {fileID: -8679921383154817045, guid: 4a428de18f512244a92d785cb0781631,
        type: 3}
      propertyPath: m_LocalEulerAnglesHint.z
      value: 0
      objectReference: {fileID: 0}
    - target: {fileID: -3887185075125053422, guid: 4a428de18f512244a92d785cb0781631,
        type: 3}
      propertyPath: m_DirtyAABB
      value: 0
      objectReference: {fileID: 0}
    - target: {fileID: -3887185075125053422, guid: 4a428de18f512244a92d785cb0781631,
        type: 3}
      propertyPath: m_ReceiveShadows
      value: 0
      objectReference: {fileID: 0}
    - target: {fileID: -3887185075125053422, guid: 4a428de18f512244a92d785cb0781631,
        type: 3}
      propertyPath: m_AABB.m_Center.x
      value: 0.07308662
      objectReference: {fileID: 0}
    - target: {fileID: -3887185075125053422, guid: 4a428de18f512244a92d785cb0781631,
        type: 3}
      propertyPath: m_AABB.m_Center.y
      value: 4.5724263
      objectReference: {fileID: 0}
    - target: {fileID: -3887185075125053422, guid: 4a428de18f512244a92d785cb0781631,
        type: 3}
      propertyPath: m_AABB.m_Center.z
      value: -0.039324284
      objectReference: {fileID: 0}
    - target: {fileID: -3887185075125053422, guid: 4a428de18f512244a92d785cb0781631,
        type: 3}
      propertyPath: m_AABB.m_Extent.x
      value: 2.3461742
      objectReference: {fileID: 0}
    - target: {fileID: -3887185075125053422, guid: 4a428de18f512244a92d785cb0781631,
        type: 3}
      propertyPath: m_AABB.m_Extent.y
      value: 5.0123525
      objectReference: {fileID: 0}
    - target: {fileID: -3887185075125053422, guid: 4a428de18f512244a92d785cb0781631,
        type: 3}
      propertyPath: m_AABB.m_Extent.z
      value: 2.5078964
      objectReference: {fileID: 0}
    - target: {fileID: -3887185075125053422, guid: 4a428de18f512244a92d785cb0781631,
        type: 3}
      propertyPath: m_Materials.Array.data[0]
      value: 
      objectReference: {fileID: 2100000, guid: fb77b647243f6d6438db13daee6d621b, type: 2}
    - target: {fileID: -3887185075125053422, guid: 4a428de18f512244a92d785cb0781631,
        type: 3}
      propertyPath: m_Materials.Array.data[1]
      value: 
      objectReference: {fileID: 2100000, guid: 4da065eb4ab58074a928b89400e4f41a, type: 2}
    - target: {fileID: 919132149155446097, guid: 4a428de18f512244a92d785cb0781631,
        type: 3}
      propertyPath: m_Name
      value: Tree_2_Red
      objectReference: {fileID: 0}
    - target: {fileID: 919132149155446097, guid: 4a428de18f512244a92d785cb0781631,
        type: 3}
      propertyPath: m_StaticEditorFlags
      value: 4
      objectReference: {fileID: 0}
    m_RemovedComponents: []
  m_SourcePrefab: {fileID: 100100000, guid: 4a428de18f512244a92d785cb0781631, type: 3}
--- !u!4 &9003174800698290981 stripped
Transform:
  m_CorrespondingSourceObject: {fileID: -8679921383154817045, guid: 4a428de18f512244a92d785cb0781631,
    type: 3}
  m_PrefabInstance: {fileID: 8897717285882680526}
  m_PrefabAsset: {fileID: 0}
